MUL/wallance_all/wallance/wallance.sim/sim_1/behav/xsim/simulate.log
Vivado Simulator 2018.3
Time resolution is 1 ps
num1:0000000000000012 num2:0000000000000061 multi_out:000000000000000000000000000006d2 ref_mul_out:000000000000000000000000000006d2, OK:1
num1:462df78c76d457ed num2:e33724c67cfde9f9 multi_out:3e49e0769d2ce86997e93f8689c93a85 ref_mul_out:3e49e0769d2ce86997e93f8689c93a85, OK:1
num1:d513d2aae2f784c5 num2:bbd2727772aff7e5 multi_out:e08231f470c5565561aa25c0552ed739 ref_mul_out:e08231f470c5565561aa25c0552ed739, OK:1
num1:47ecdb8f8932d612 num2:e77696ce793069f2 multi_out:41080baa84417271415afc28313bbf04 ref_mul_out:41080baa84417271415afc28313bbf04, OK:1
num1:e2ca4ec5f4007ae8 num2:de8e28bd2e58495c multi_out:e69b37e161c720726b4db53fc2f85360 ref_mul_out:e69b37e161c720726b4db53fc2f85360, OK:1
num1:b2a7266596ab582d num2:0573870ab1ef6263 multi_out:fe5a5c09259857fce4c30ba74b075367 ref_mul_out:fe5a5c09259857fce4c30ba74b075367, OK:1
num1:10642120c03b2280 num2:cecccc9d557845aa multi_out:0d3daf8c9e10218cc85bba3c43916900 ref_mul_out:0d3daf8c9e10218cc85bba3c43916900, OK:1
num1:8983b813cb203e96 num2:a9a7d65386bc380d multi_out:b17a463f993adab600706882d87bfd9e ref_mul_out:b17a463f993adab600706882d87bfd9e, OK:1
num1:eaa62ad5359fdd6b num2:d7563eae81174a02 multi_out:ee0a5c912435d0e79015bfd470dda8d6 ref_mul_out:ee0a5c912435d0e79015bfd470dda8d6, OK:1
num1:e7c572cf0effe91d num2:0509650a11844923 multi_out:ff85f79f06ec4b11407b0427266a23f7 ref_mul_out:ff85f79f06ec4b11407b0427266a23f7, OK:1
num1:9e314c3ce5730aca num2:452e618a7968bdf2 multi_out:e5919123e2dcb0d65a79f8b0b1c754f4 ref_mul_out:e5919123e2dcb0d65a79f8b0b1c754f4, OK:1
num1:ec4b34d820c4b341 num2:c48a12893c20f378 multi_out:f0def392aeedd4492c049eccb67ab978 ref_mul_out:f0def392aeedd4492c049eccb67ab978, OK:1
num1:5b0265b675c50deb num2:571513ae634bf9c6 multi_out:1ef54ec286783d7bc207bf82b5cb56c2 ref_mul_out:1ef54ec286783d7bc207bf82b5cb56c2, OK:1
num1:150fdd2ade7502bc num2:b897be7185d79a0b multi_out:0f2fe2fd6156bce93ddfa656ea903614 ref_mul_out:0f2fe2fd6156bce93ddfa656ea903614, OK:1
num1:27f2554f42f24185 num2:1d06333a9dcc603b multi_out:04876b5666f6a3d6b41da4bc0d62f9a7 ref_mul_out:04876b5666f6a3d6b41da4bc0d62f9a7, OK:1
num1:0aaa4b15bf23327e num2:6c9c4bd978d99bf1 multi_out:04865a9be1453b393e3715821c82d29e ref_mul_out:04865a9be1453b393e3715821c82d29e, OK:1
num1:2635fb4c31230762 num2:47b9a18f4fa1559f multi_out:0ab4add212c5411a3413d8b008d71fde ref_mul_out:0ab4add212c5411a3413d8b008d71fde, OK:1
num1:dbcd60b77c6da9f8 num2:ae7d945ccfc4569f multi_out:e753d60a8c826f2598e91b48c915e108 ref_mul_out:e753d60a8c826f2598e91b48c915e108, OK:1
num1:44de3789adcbc05b num2:e8233ed0a4ae3249 multi_out:3e72dd9c4fa119474fb4b5db64859ff3 ref_mul_out:3e72dd9c4fa119474fb4b5db64859ff3, OK:1
num1:a8c7fc51ebfec0d7 num2:061d7f0c4b212f96 multi_out:fdeaa34886c374c8772aa3bde56376fa ref_mul_out:fdeaa34886c374c8772aa3bde56376fa, OK:1
num1:6457edc8e12ccec2 num2:1ef2ed3dbb825a77 multi_out:0c2185f9ebde10b85d71198d2108502e ref_mul_out:0c2185f9ebde10b85d71198d2108502e, OK:1
num1:bf05007e090cdb12 num2:1cd9e73936e5816d multi_out:f8ad3c9a3172b6d028d38bf117f758aa ref_mul_out:f8ad3c9a3172b6d028d38bf117f758aa, OK:1
num1:e9ebf6d30fd28f1f num2:bc14887842d92f85 multi_out:efc783ed4413cb72b60c3c782ff20c1b ref_mul_out:efc783ed4413cb72b60c3c782ff20c1b, OK:1
num1:248b4b492dda595b num2:150caf2a9ff2ae3f multi_out:03013cb5d6579839ba471802ae7dd765 ref_mul_out:03013cb5d6579839ba471802ae7dd765, OK:1
num1:c33f38862c156358 num2:ce2ff29cc71a0c8e multi_out:cf117e83e6d08bae6fb67882f3753ad0 ref_mul_out:cf117e83e6d08bae6fb67882f3753ad0, OK:1
num1:937dbc267d3599fa num2:d18bb4a339961773 multi_out:a72e6f4fce0ffbfb7bf41968f265a14e ref_mul_out:a72e6f4fce0ffbfb7bf41968f265a14e, OK:1
num1:d9d292b39799a82f num2:22290d44afd8565f multi_out:fae7d83acc0e756c5e78c8ace92d3371 ref_mul_out:fae7d83acc0e756c5e78c8ace92d3371, OK:1
num1:e59b36cb7bf8fdf7 num2:2d28db5af3091ae6 multi_out:fb581244bbf8ded5d13c30110e2e41ea ref_mul_out:fb581244bbf8ded5d13c30110e2e41ea, OK:1
num1:f682e2ed14cfc129 num2:b29fb665ed536cda multi_out:f96116510fe48a289614b306f3b2c8ea ref_mul_out:f96116510fe48a289614b306f3b2c8ea, OK:1
num1:efbe94dfda8ae2b5 num2:2231ff443cf11979 multi_out:fdd4230abaeb28885eef071bb42dd48d ref_mul_out:fdd4230abaeb28885eef071bb42dd48d, OK:1
num1:15090b2ae8740cd0 num2:076fcf0e55f6adab multi_out:009c6f3d818c8aa4eee53fe5120d1ef0 ref_mul_out:009c6f3d818c8aa4eee53fe5120d1ef0, OK:1
num1:cd5ebc9a6e5daddc num2:e1f102c3fedf72fd multi_out:d3509967429ce8677f77667384a4ca6c ref_mul_out:d3509967429ce8677f77667384a4ca6c, OK:1
num1:2779e94e2b0eed56 num2:8531340ab3d97667 multi_out:1489ec91ae37c3b051359342844d219a ref_mul_out:1489ec91ae37c3b051359342844d219a, OK:1
num1:9c0e8a385b6fb9b6 num2:dc2bc4b83cd18779 multi_out:aa0b686cda9379405742b5686853c106 ref_mul_out:aa0b686cda9379405742b5686853c106, OK:1
num1:49c65d934a74bf94 num2:acb7ca59823f2c04 multi_out:31c63dfc2ba65b2676cac591882c6e50 ref_mul_out:31c63dfc2ba65b2676cac591882c6e50, OK:1
num1:a6fcde4d6dcb69db num2:b6a4266d6cb0b7d9 multi_out:c07eb2acf288548a426da9dea4a847a3 ref_mul_out:c07eb2acf288548a426da9dea4a847a3, OK:1
num1:653b49cabb45e276 num2:4a9371955b172db6 multi_out:1d7d714a34a569e2144ca881b717bde4 ref_mul_out:1d7d714a34a569e2144ca881b717bde4, OK:1
num1:02749b04a3071a46 num2:349807697bd261f7 multi_out:008124cb2f1efdfcd29229682c3adf8a ref_mul_out:008124cb2f1efdfcd29229682c3adf8a, OK:1
num1:44018d88da6ebab4 num2:9690042d147cd928 multi_out:27ff2ae9cce50da5ce3334667cbfc020 ref_mul_out:27ff2ae9cce50da5ce3334667cbfc020, OK:1
num1:975c9c2ee3c530c7 num2:0e41451c8477e408 multi_out:fa2c62ce867115a1517a2ae7061bc238 ref_mul_out:fa2c62ce867115a1517a2ae7061bc238, OK:1
num1:149e0729fea7a6fd num2:433567868e37901c multi_out:0569a8ede465606283e94fe95e9f93ac ref_mul_out:0569a8ede465606283e94fe95e9f93ac, OK:1
num1:9eb7c63ded3408da num2:b855c470334ea766 multi_out:b9f37edb65bc06371a97cd6794edbcdc ref_mul_out:b9f37edb65bc06371a97cd6794edbcdc, OK:1
num1:5d7199bab9f50473 num2:7d4779fa2f3ab35e multi_out:2dba8f17d36ce0cda5ebd338b9220b3a ref_mul_out:2dba8f17d36ce0cda5ebd338b9220b3a, OK:1
num1:8d24f61a6a8e05d5 num2:1b876137dcf000b9 multi_out:f3a628d4823c2361ab17c102845236ed ref_mul_out:f3a628d4823c2361ab17c102845236ed, OK:1
num1:603921c04b273796 num2:db461ab613259f26 multi_out:526b3988f81d0132d95af7a7ae066a44 ref_mul_out:526b3988f81d0132d95af7a7ae066a44, OK:1
num1:6e5f0fdc3e99837d num2:3c03ff7843615786 multi_out:19e000f958a9611dd36231bb79674e6e ref_mul_out:19e000f958a9611dd36231bb79674e6e, OK:1
num1:ed8d80db3f5a9b7e num2:3ced2b79e7c3b6cf multi_out:fb9c1311a9a6337b51cabd33c7c94ee2 ref_mul_out:fb9c1311a9a6337b51cabd33c7c94ee2, OK:1
num1:b0bcee61fd28e4fa num2:d0f578a10b940917 multi_out:bf4d81267472a52131312b694d415c76 ref_mul_out:bf4d81267472a52131312b694d415c76, OK:1
num1:a863965043779186 num2:9ab488357a8c59f5 multi_out:cb0e1fd4938d8d61a5e4f3c0944ddb3e ref_mul_out:cb0e1fd4938d8d61a5e4f3c0944ddb3e, OK:1
num1:60b175c1949a8a29 num2:cc01b498e2e574c5 multi_out:4d0e0ebe3e0a16ee28558ddb2a33e58d ref_mul_out:4d0e0ebe3e0a16ee28558ddb2a33e58d, OK:1
num1:b98c427325b27b4b num2:c550168af622e6ec multi_out:c9b2e4c32f9304e571c422a18d450b24 ref_mul_out:c9b2e4c32f9304e571c422a18d450b24, OK:1
num1:d44b80a82758d14e num2:d0ca8ca1549efda9 multi_out:dc5ac419e40cb6ec318dd57186a0427e ref_mul_out:dc5ac419e40cb6ec318dd57186a0427e, OK:1
num1:f33466e6070bb90e num2:152fb52acfd6c09f multi_out:fef0ea01abc5696ef00a0ee22ec66fb2 ref_mul_out:fef0ea01abc5696ef00a0ee22ec66fb2, OK:1
num1:c6b5f48d155a1d2a num2:9c6de6384f75ff9e multi_out:dcfe48f9f8d0ff9bd5c325b73adcd5ec ref_mul_out:dcfe48f9f8d0ff9bd5c325b73adcd5ec, OK:1
num1:6464e3c8bccfa879 num2:09ff4113652345ca multi_out:03eba6062c93e2a38ea7cf1fb9ce8c7a ref_mul_out:03eba6062c93e2a38ea7cf1fb9ce8c7a, OK:1
num1:e3b7aec735a0c96b num2:5d059dba5b0bddb6 multi_out:f5b91ba7d7f599772987a72b9ec99112 ref_mul_out:f5b91ba7d7f599772987a72b9ec99112, OK:1
num1:5c8295b96216abc4 num2:da269ab4492fd392 multi_out:4ed526c9cb612e1cc03f56870d7c81c8 ref_mul_out:4ed526c9cb612e1cc03f56870d7c81c8, OK:1
num1:c33390863fbb3b7f num2:f92794f27d6df5fa multi_out:c4d3c10dd0f31e4024afd6ebc4dba506 ref_mul_out:c4d3c10dd0f31e4024afd6ebc4dba506, OK:1
num1:dece5ebd19452132 num2:f249a4e4424fcd84 multi_out:e095890661b3ee28a73c7e2985a827c8 ref_mul_out:e095890661b3ee28a73c7e2985a827c8, OK:1
num1:54a879a96543cfca num2:4765a98ed095a8a1 multi_out:179c58486da972de3026535540943e0a ref_mul_out:179c58486da972de3026535540943e0a, OK:1
num1:85e51e0bfd8b6afb num2:64c83dc9f78290ef multi_out:cfedfd436b67c6bfa092dee7a1cc1055 ref_mul_out:cfedfd436b67c6bfa092dee7a1cc1055, OK:1
num1:bab148751b60e536 num2:35cdbf6bc7e8568f multi_out:f16f00245b7b8cf900890a2b8b102d2a ref_mul_out:f16f00245b7b8cf900890a2b8b102d2a, OK:1
num1:d73fb4ae4465e788 num2:493e45924df3819b multi_out:f45740e0555509b5ae117ce97176b758 ref_mul_out:f45740e0555509b5ae117ce97176b758, OK:1
num1:9684e02d1444df28 num2:e169b0c225b75f4b multi_out:a31f3cb2ec945e99914a7586cc9538b8 ref_mul_out:a31f3cb2ec945e99914a7586cc9538b8, OK:1
num1:06b3050d8f1cf61e num2:0c039d187679fdec multi_out:00507c721fd98881346885e1b61c89a8 ref_mul_out:00507c721fd98881346885e1b61c89a8, OK:1
num1:c3761c8668ae1bd1 num2:9dbf643ba0c02441 multi_out:dab22ce9bfd456aab42885fb8cde7411 ref_mul_out:dab22ce9bfd456aab42885fb8cde7411, OK:1
num1:29efe9536c44f9d8 num2:adac225bab196256 multi_out:1c73537f0583c99beb3576e074e89e90 ref_mul_out:1c73537f0583c99beb3576e074e89e90, OK:1
num1:8273e204f166fae2 num2:ec50b4d839ac0373 multi_out:8c1b3fe2a07ffedcc0b14cc9880b5986 ref_mul_out:8c1b3fe2a07ffedcc0b14cc9880b5986, OK:1
num1:dc0344b8093e4d12 num2:f287b6e59c811239 multi_out:dde802f94190ecde35f19a163e5c6d02 ref_mul_out:dde802f94190ecde35f19a163e5c6d02, OK:1
num1:15890f2bd0c5dca1 num2:641b85c840905d81 multi_out:086bdaa2c4905580309979286f6aaa21 ref_mul_out:086bdaa2c4905580309979286f6aaa21, OK:1
num1:50d5f9a113b55527 num2:82223a048f8c6e1f multi_out:29177780dea0f689ba93ad50a7e011b9 ref_mul_out:29177780dea0f689ba93ad50a7e011b9, OK:1
num1:cb5c80962c2d2358 num2:8919b4120a6e9314 multi_out:e3cf37d24113fa7882ef620ffea24ae0 ref_mul_out:e3cf37d24113fa7882ef620ffea24ae0, OK:1
num1:d8ace2b1cb227096 num2:f6c38eed2ac2d555 multi_out:da181792fddbc021cfac387c07c82fce ref_mul_out:da181792fddbc021cfac387c07c82fce, OK:1
num1:7ab11bf5158b2b2b num2:93c1222756b403ad multi_out:46d042f22f63bc96faedf3c7fcc9ad0f ref_mul_out:46d042f22f63bc96faedf3c7fcc9ad0f, OK:1
num1:d3a8e4a74249ff84 num2:dcef90b9f3d7a6e7 multi_out:d9bba61c008dc3cdd17f97fcb051281c ref_mul_out:d9bba61c008dc3cdd17f97fcb051281c, OK:1
num1:6de5bbdba4da5649 num2:2883b15164ba0fc9 multi_out:11646e083af863c2b776348d6f860651 ref_mul_out:11646e083af863c2b776348d6f860651, OK:1
num1:1546dd2ad0bc5ea1 num2:a2e620457d2a45fa multi_out:0d89f84e6eb4d12fc7026093c0dfce3a ref_mul_out:0d89f84e6eb4d12fc7026093c0dfce3a, OK:1
num1:be75427c41a10583 num2:ff4f3cfeb9461472 multi_out:bea283cb8e3587b8fe4bcb72faf4b056 ref_mul_out:bea283cb8e3587b8fe4bcb72faf4b056, OK:1
num1:b7dfaa6fb455f268 num2:782321f043460d86 multi_out:de26f1e8cd81ed4d7a835a1242bc2a70 ref_mul_out:de26f1e8cd81ed4d7a835a1242bc2a70, OK:1
num1:207691401c719738 num2:7b0da9f694097628 multi_out:0f9ab35cb884aaeecd00325b7e6b70c0 ref_mul_out:0f9ab35cb884aaeecd00325b7e6b70c0, OK:1
num1:602831c0e2bf1ac5 num2:1cde71393a625f74 multi_out:0ad7f2d37ae8cf32d61723a18af13c44 ref_mul_out:0ad7f2d37ae8cf32d61723a18af13c44, OK:1
num1:1e1c873cd86a6ab0 num2:3124d3621521932a multi_out:05c7cac2b6da0321fe5aa818cd6890e0 ref_mul_out:05c7cac2b6da0321fe5aa818cd6890e0, OK:1
num1:f0b14ee10aec3515 num2:a18bee430be29d17 multi_out:f65724a231166a3728044f389b50a5e3 ref_mul_out:f65724a231166a3728044f389b50a5e3, OK:1
num1:c336048664b5e3c9 num2:60f69dc11297cb25 multi_out:e8f9b22506fe923ae7b86a1f47794f0d ref_mul_out:e8f9b22506fe923ae7b86a1f47794f0d, OK:1
num1:ad67e25ac69da28d num2:165b7b2c03d62707 multi_out:f8c969a3f9b5caef9fd994a6faf0ecdb ref_mul_out:f8c969a3f9b5caef9fd994a6faf0ecdb, OK:1
num1:b8ade671060a5d0c num2:5b60e5b69de17c3b multi_out:e68ad2214650b6465ed767ad8d0141c4 ref_mul_out:e68ad2214650b6465ed767ad8d0141c4, OK:1
num1:cf14ce9efbdfc2f7 num2:2ab8f755ae78585c multi_out:f7d611974b84e3edaa291c21b536f8c4 ref_mul_out:f7d611974b84e3edaa291c21b536f8c4, OK:1
num1:d00b12a0902a3a20 num2:da3d8cb439600972 multi_out:d71de624763fb0d353ffc5d89ad90240 ref_mul_out:d71de624763fb0d353ffc5d89ad90240, OK:1
num1:86dcf00d6e8af5dd num2:bccc427925b0994b multi_out:a6a998e4ca5d6e30d3959f8768971cbf ref_mul_out:a6a998e4ca5d6e30d3959f8768971cbf, OK:1
num1:fef064fdcf63da9e num2:47e2738fbde0d27b multi_out:ffb3bbc0f172c1c1f603021a7e8fa5ea ref_mul_out:ffb3bbc0f172c1c1f603021a7e8fa5ea, OK:1
num1:71c129e381c39a03 num2:58f93db10e92431d multi_out:278926b1a6e72eb0ee8c30c8e42d3b57 ref_mul_out:278926b1a6e72eb0ee8c30c8e42d3b57, OK:1
num1:ca9cbc9522119f44 num2:f6a178edf01d34e0 multi_out:cc90f091c1f4b3af9b0500ac2e792b80 ref_mul_out:cc90f091c1f4b3af9b0500ac2e792b80, OK:1
num1:7c1e5bf8297a1552 num2:a95fc45246dcb78d multi_out:521e792a16f7c1dac1edb057dbf35c2a ref_mul_out:521e792a16f7c1dac1edb057dbf35c2a, OK:1
num1:236afd464219e784 num2:48487d90c63a928c multi_out:0a001eb243a0809a2dbd454d781be430 ref_mul_out:0a001eb243a0809a2dbd454d781be430, OK:1
num1:352d616a0beac117 num2:d55bbcaa427b5784 multi_out:2c51d05f8e1872601265a193a0b760dc ref_mul_out:2c51d05f8e1872601265a193a0b760dc, OK:1
num1:b05202603e6f0f7c num2:c5a1608b5d4a4dba multi_out:c27ce15aeef4c6cf21e4f9c34a318c18 ref_mul_out:c27ce15aeef4c6cf21e4f9c34a318c18, OK:1
num1:92831e25d31dfea6 num2:d10504a219058332 multi_out:a69ae63130d6ba1c8e9808ebc468ae6c ref_mul_out:a69ae63130d6ba1c8e9808ebc468ae6c, OK:1
num1:8a64b014a48f7c49 num2:25f2034b9ec9c03d multi_out:ee915f1ddfe995fe6a53781776b85d65 ref_mul_out:ee915f1ddfe995fe6a53781776b85d65, OK:1
num1:23907547ae68305c num2:9caf7a39433e9786 multi_out:15c46832a6ad7d7f97eec9c489579428 ref_mul_out:15c46832a6ad7d7f97eec9c489579428, OK:1
num1:6851e5d0da058ab4 num2:467c458c9622502c multi_out:1cb908d9c9b00fcb8bfb5679183416f0 ref_mul_out:1cb908d9c9b00fcb8bfb5679183416f0, OK:1
num1:b522406a03e9b707 num2:746affe80895f911 multi_out:ddf43a87f85cb5ca73c4d0f0549df677 ref_mul_out:ddf43a87f85cb5ca73c4d0f0549df677, OK:1
num1:39e48173a5e79e4b num2:11fe052376295bec multi_out:04119e7a9a40a06ce0d5e2e632cd9624 ref_mul_out:04119e7a9a40a06ce0d5e2e632cd9624, OK:1
num1:64e165c9520eefa4 num2:ef8372df9ca70439 multi_out:5e623aa287076b01eec238bdc50deb84 ref_mul_out:5e623aa287076b01eec238bdc50deb84, OK:1
num1:33836567ea5814d4 num2:583125b04ea0419d multi_out:11bf0e979942268db2d2d660b1ce9a04 ref_mul_out:11bf0e979942268db2d2d660b1ce9a04, OK:1
num1:24d2bf4941103982 num2:1000b720ecb91ad9 multi_out:024d464bf73332c33d1fadb13389f332 ref_mul_out:024d464bf73332c33d1fadb13389f332, OK:1
num1:49b16f938e054c1c num2:954b822a71b461e3 multi_out:2afa0264e4642c5dbec5bf90d03918d4 ref_mul_out:2afa0264e4642c5dbec5bf90d03918d4, OK:1
num1:aed72e5de471f8c8 num2:4226a9841d3f9d3a multi_out:eb073827421f64a425dc86ba889d0550 ref_mul_out:eb073827421f64a425dc86ba889d0550, OK:1
num1:1c8d7f3995a9a82b num2:a97f0052897f1c12 multi_out:12e793385606e60a2b33265a84a78706 ref_mul_out:12e793385606e60a2b33265a84a78706, OK:1
num1:e82b96d02c848959 num2:4bf52997b759ea6e multi_out:f8edf3072e118523da2092e5a56f5e3e ref_mul_out:f8edf3072e118523da2092e5a56f5e3e, OK:1
num1:535277a66d8b87db num2:80797c005d85d3bb multi_out:29d0c629d4d4ac29c16f40b429acbdf9 ref_mul_out:29d0c629d4d4ac29c16f40b429acbdf9, OK:1
num1:b4e8d66987e44c0f num2:2ca819598653620c multi_out:f2e6b6375318aed065faea0346ae4eb4 ref_mul_out:f2e6b6375318aed065faea0346ae4eb4, OK:1
num1:67d735cf62fd49c5 num2:a8e4d8514839e590 multi_out:44820eba9375674e3f0b9eae1653b7d0 ref_mul_out:44820eba9375674e3f0b9eae1653b7d0, OK:1
num1:3b83cd77b4f9a469 num2:ec3758d82523654a multi_out:36ea5f630e06cfad3a65427d7561f35a ref_mul_out:36ea5f630e06cfad3a65427d7561f35a, OK:1
num1:e20e9ac44ddd4d9b num2:dbe6f2b75c78b1b8 multi_out:e6477b2156e79bd3da51fe5b0e5ff268 ref_mul_out:e6477b2156e79bd3da51fe5b0e5ff268, OK:1
num1:984d5a30c378ee86 num2:5ad6c7b53bed5377 multi_out:db343179410248f6525360b6c69a524a ref_mul_out:db343179410248f6525360b6c69a524a, OK:1
num1:038787076a15f5d4 num2:74a1ade93b0b9776 multi_out:019ba3d11525f8ac23533d8b463b5bb8 ref_mul_out:019ba3d11525f8ac23533d8b463b5bb8, OK:1
num1:00f25f0145e28b8b num2:c07642806d808bdb multi_out:00b63737b5159fe35fa2f938bf11d8e9 ref_mul_out:00b63737b5159fe35fa2f938bf11d8e9, OK:1
num1:e2ecdac5611d9fc2 num2:d7b2e4af9827fa30 multi_out:e7809a72e346d6c1283625d5aa1f6860 ref_mul_out:e7809a72e346d6c1283625d5aa1f6860, OK:1
num1:57fbb9afb302da66 num2:7c41aff8f4d86ee9 multi_out:2ab48155e44322959ab88f36a5809ad6 ref_mul_out:2ab48155e44322959ab88f36a5809ad6, OK:1
num1:f78576ef8376ac06 num2:cab47c9570ef37e1 multi_out:f949559050b0c80bbb97ac4c43dc7b46 ref_mul_out:f949559050b0c80bbb97ac4c43dc7b46, OK:1
num1:304e4d60f7723eee num2:9420ea28f29c5ee5 multi_out:1bf37ab507eb3ac35494fce4a155aee6 ref_mul_out:1bf37ab507eb3ac35494fce4a155aee6, OK:1
num1:14b43729322f7d64 num2:bbbc5277f0eeaee1 multi_out:0f2edf4f06d6a31842e8fa81b5ef2ce4 ref_mul_out:0f2edf4f06d6a31842e8fa81b5ef2ce4, OK:1
num1:40aaf5813715156e num2:3437d5686a9fb9d5 multi_out:0d30d4819c9a7ffc33bfd0f8ec595286 ref_mul_out:0d30d4819c9a7ffc33bfd0f8ec595286, OK:1
num1:d57800aa786271f0 num2:f8dc48f1079fc30f multi_out:d6a7a7a76c0322766cae1ce25e9e7d10 ref_mul_out:d6a7a7a76c0322766cae1ce25e9e7d10, OK:1
num1:472e958ebe9bbc7d num2:1e664d3cf161dce2 multi_out:0873e790463b3fca302d4f9233d4d25a ref_mul_out:0873e790463b3fca302d4f9233d4d25a, OK:1
num1:77ebb1efd4b5e6a9 num2:d7a23cafade7d05b multi_out:6502f2048eb31727b3dd439ebf914e13 ref_mul_out:6502f2048eb31727b3dd439ebf914e13, OK:1
num1:5cd20db925029b4a num2:09c83513098e2d13 multi_out:038bf9d49ed74a3d242807a4f189887e ref_mul_out:038bf9d49ed74a3d242807a4f189887e, OK:1
num1:28c6275132dc4165 num2:cc981099db983ab7 multi_out:20961fa0f09a0c3c52f884a67d3ba133 ref_mul_out:20961fa0f09a0c3c52f884a67d3ba133, OK:1
num1:b8ea3a719d12083a num2:f2356ae4317c0762 multi_out:bcbe960f1f120d5322d55ac0b538bc34 ref_mul_out:bcbe960f1f120d5322d55ac0b538bc34, OK:1
num1:beda447d1513dd2a num2:72c3a3e52cee5f59 multi_out:e2cb690c8615a95b30c9d15b8806799a ref_mul_out:e2cb690c8615a95b30c9d15b8806799a, OK:1
num1:e4a800c976de6bed num2:57c1d1afa0aecc41 multi_out:f6a06487759b8cfe2357d084e790432d ref_mul_out:f6a06487759b8cfe2357d084e790432d, OK:1
num1:e696e8cdeda71cdb num2:8326d40638139f70 multi_out:f2fb5e7c49f0d8813f34fb8bd049a4d0 ref_mul_out:f2fb5e7c49f0d8813f34fb8bd049a4d0, OK:1
num1:5e983dbdd14820a2 num2:6e3d47dcb555de6a multi_out:28bc0f5c0d1deec32335a15293f3ff14 ref_mul_out:28bc0f5c0d1deec32335a15293f3ff14, OK:1
num1:bd86f47ba86c5e50 num2:bc3f8478929d5825 multi_out:cf1e9d5b415e810c078d65840f252190 ref_mul_out:cf1e9d5b415e810c078d65840f252190, OK:1
num1:ae23ce5c7b7b89f6 num2:3cb3ab7911cc9b23 multi_out:ec96f0922bae8f8a144a5749f473cea2 ref_mul_out:ec96f0922bae8f8a144a5749f473cea2, OK:1
num1:ddd146bb644605c8 num2:b9879473870cee0e multi_out:e73a21a748273993ef21eea5529440f0 ref_mul_out:e73a21a748273993ef21eea5529440f0, OK:1
num1:e70f98ce0671030c num2:acecdc596a1a61d4 multi_out:ef276793fba8eeb750606cf76ef611f0 ref_mul_out:ef276793fba8eeb750606cf76ef611f0, OK:1
num1:d9b8c0b35ca26fb9 num2:baf4e2757a4fbff4 multi_out:e40b9e3d8586d8e4f08eddfd20448354 ref_mul_out:e40b9e3d8586d8e4f08eddfd20448354, OK:1
num1:9cfc7a39066cf10c num2:8aecbe1501729302 multi_out:ca44891eace5abddeb79aa92fe9bc618 ref_mul_out:ca44891eace5abddeb79aa92fe9bc618, OK:1
num1:271c434e02fbf905 num2:5c7951b8013f2902 multi_out:0e20b107e6bec81611784da9ae14bf0a ref_mul_out:0e20b107e6bec81611784da9ae14bf0a, OK:1
num1:46e7538d847fb208 num2:747331e8d7b48eaf multi_out:2040b9996cfc79fc80a7e4ca4dab2378 ref_mul_out:2040b9996cfc79fc80a7e4ca4dab2378, OK:1
num1:7af6abf548590990 num2:3d82bd7ba620904c multi_out:1d8b934046104167777eb50821cfd6c0 ref_mul_out:1d8b934046104167777eb50821cfd6c0, OK:1
num1:12a90325a005a640 num2:b87c107086ebb60d multi_out:0d7285535536f2c193fb7ee2413af140 ref_mul_out:0d7285535536f2c193fb7ee2413af140, OK:1
num1:94ded82916cbf92d num2:987b08305e2551bc multi_out:c030d3fcfa6b15be41020fccd1233a0c ref_mul_out:c030d3fcfa6b15be41020fccd1233a0c, OK:1
num1:2876695060272dc0 num2:26bf3f4dd0cf6aa1 multi_out:061fcdfbf1c70107227c1af6afd545c0 ref_mul_out:061fcdfbf1c70107227c1af6afd545c0, OK:1
num1:7a87aff5faf32ef5 num2:ca481294aeeacc5d multi_out:60d18fe649bc18bd5fb7fc2d65b54b01 ref_mul_out:60d18fe649bc18bd5fb7fc2d65b54b01, OK:1
num1:5e6065bcb558a66a num2:cf309c9edc4308b8 multi_out:4c61de13f8b6060880b1f7efc2a8ec30 ref_mul_out:4c61de13f8b6060880b1f7efc2a8ec30, OK:1
num1:23400b46fd7906fa num2:c9cbbc9383fa6407 multi_out:1bc9569b0689e171920d1a44f32cd8d6 ref_mul_out:1bc9569b0689e171920d1a44f32cd8d6, OK:1
num1:5bd3dbb7aada7455 num2:b1800a6322d5f145 multi_out:3fab6891aef87d5bf0fa9a6dc91e5fe9 ref_mul_out:3fab6891aef87d5bf0fa9a6dc91e5fe9, OK:1
num1:9372ce26ac93e059 num2:8f63e41eb4497668 multi_out:c332c5d28df7843832975199d2dd2a28 ref_mul_out:c332c5d28df7843832975199d2dd2a28, OK:1
num1:2d19a55ac838f490 num2:5c9967b90e43851c multi_out:10503e065ec9734c050a704b5ef98fc0 ref_mul_out:10503e065ec9734c050a704b5ef98fc0, OK:1
num1:6826d9d055861fab num2:6c6a6dd837b9656f multi_out:2c1bb0aa9689413b2c29c9159f393225 ref_mul_out:2c1bb0aa9689413b2c29c9159f393225, OK:1
num1:46d6a78da2cc8845 num2:7e2491fc45f3238b multi_out:22e7c50ca99adb37420138f54e2e6c77 ref_mul_out:22e7c50ca99adb37420138f54e2e6c77, OK:1
num1:d27f0aa46e1e1fdc num2:52b533a50c978d19 multi_out:f14c7c0d2a4b23c67bba54c47341487c ref_mul_out:f14c7c0d2a4b23c67bba54c47341487c, OK:1
num1:f98bc0f39f398e3e num2:62056bc4ac782c58 multi_out:fd875ce07c0290ae681c5320f54b8d50 ref_mul_out:fd875ce07c0290ae681c5320f54b8d50, OK:1
num1:033a45062e36435c num2:0c161918cd1d509a multi_out:0027028f397c9ecda6e670df0f1d4558 ref_mul_out:0027028f397c9ecda6e670df0f1d4558, OK:1
num1:5515d1aae2f066c5 num2:61dbd5c30d12031a multi_out:20865528189736cbc35da7321878bf02 ref_mul_out:20865528189736cbc35da7321878bf02, OK:1
num1:0633630c5934e9b2 num2:61dafdc3f4f00ee9 multi_out:025ec66f8e47751dc6a0d00cd4d06f02 ref_mul_out:025ec66f8e47751dc6a0d00cd4d06f02, OK:1
num1:7c2db9f875ad73eb num2:4483ad89792c03f2 multi_out:213c04f9bf52aeb64124c39d45b75526 ref_mul_out:213c04f9bf52aeb64124c39d45b75526, OK:1
num1:0de14b1b378c736f num2:344dc168d6a128ad multi_out:02d5fa81a741564e4a01edfddec25a03 ref_mul_out:02d5fa81a741564e4a01edfddec25a03, OK:1
num1:67e857cf92f91225 num2:8d94d21b55dd8dab multi_out:39775ff7c857c2adca19d38c4e4e7fb7 ref_mul_out:39775ff7c857c2adca19d38c4e4e7fb7, OK:1
num1:2ed6d95dc03b3e80 num2:82344204412dfd82 multi_out:17d2aa19edfbaa231a3fd7dea75a3d00 ref_mul_out:17d2aa19edfbaa231a3fd7dea75a3d00, OK:1
num1:1b368b362ba7a557 num2:bce32879196a0332 multi_out:141433e69e53af05373203c672b44ffe ref_mul_out:141433e69e53af05373203c672b44ffe, OK:1
num1:8b42ec16f24baee4 num2:605065c0d57fecaa multi_out:d4146f0bda0290c01f1439aa22985368 ref_mul_out:d4146f0bda0290c01f1439aa22985368, OK:1
num1:4665378c9759882e num2:7dfe8ffbb8c0c271 multi_out:22a56c248577a305787e23e1da37f84e ref_mul_out:22a56c248577a305787e23e1da37f84e, OK:1
